<?xml version="1.0" encoding="UTF-8" standalone="no"?>
<!-- Created with Inkscape (http://www.inkscape.org/) -->

<svg
   xmlns:dc="http://purl.org/dc/elements/1.1/"
   xmlns:cc="http://creativecommons.org/ns#"
   xmlns:rdf="http://www.w3.org/1999/02/22-rdf-syntax-ns#"
   xmlns:svg="http://www.w3.org/2000/svg"
   xmlns="http://www.w3.org/2000/svg"
   xmlns:sodipodi="http://sodipodi.sourceforge.net/DTD/sodipodi-0.dtd"
   xmlns:inkscape="http://www.inkscape.org/namespaces/inkscape"
   width="156.94173mm"
   height="145.32402mm"
   viewBox="0 0 556.09273 514.92763"
   id="svg2"
   version="1.1"
   inkscape:version="0.91 r13725"
   sodipodi:docname="demo.svg">
  <defs
     id="defs4">
    <marker
       inkscape:stockid="Arrow1Lend"
       orient="auto"
       refY="0.0"
       refX="0.0"
       id="marker9904"
       style="overflow:visible;"
       inkscape:isstock="true">
      <path
         id="path9906"
         d="M 0.0,0.0 L 5.0,-5.0 L -12.5,0.0 L 5.0,5.0 L 0.0,0.0 z "
         style="fill-rule:evenodd;stroke:#000000;stroke-width:1pt;stroke-opacity:1;fill:#000000;fill-opacity:1"
         transform="scale(0.8) rotate(180) translate(12.5,0)" />
    </marker>
    <marker
       inkscape:stockid="Arrow1Lend"
       orient="auto"
       refY="0.0"
       refX="0.0"
       id="marker9834"
       style="overflow:visible;"
       inkscape:isstock="true">
      <path
         id="path9836"
         d="M 0.0,0.0 L 5.0,-5.0 L -12.5,0.0 L 5.0,5.0 L 0.0,0.0 z "
         style="fill-rule:evenodd;stroke:#000000;stroke-width:1pt;stroke-opacity:1;fill:#000000;fill-opacity:1"
         transform="scale(0.8) rotate(180) translate(12.5,0)" />
    </marker>
    <marker
       inkscape:isstock="true"
       style="overflow:visible;"
       id="marker9730"
       refX="0.0"
       refY="0.0"
       orient="auto"
       inkscape:stockid="Arrow1Lend"
       inkscape:collect="always">
      <path
         transform="scale(0.8) rotate(180) translate(12.5,0)"
         style="fill-rule:evenodd;stroke:#000000;stroke-width:1pt;stroke-opacity:1;fill:#000000;fill-opacity:1"
         d="M 0.0,0.0 L 5.0,-5.0 L -12.5,0.0 L 5.0,5.0 L 0.0,0.0 z "
         id="path9732" />
    </marker>
    <marker
       inkscape:stockid="Arrow1Lend"
       orient="auto"
       refY="0.0"
       refX="0.0"
       id="Arrow1Lend"
       style="overflow:visible;"
       inkscape:isstock="true"
       inkscape:collect="always">
      <path
         id="path6014"
         d="M 0.0,0.0 L 5.0,-5.0 L -12.5,0.0 L 5.0,5.0 L 0.0,0.0 z "
         style="fill-rule:evenodd;stroke:#000000;stroke-width:1pt;stroke-opacity:1;fill:#000000;fill-opacity:1"
         transform="scale(0.8) rotate(180) translate(12.5,0)" />
    </marker>
    <marker
       inkscape:stockid="Arrow1Lstart"
       orient="auto"
       refY="0"
       refX="0"
       id="Arrow1Lstart"
       style="overflow:visible"
       inkscape:isstock="true">
      <path
         id="path6011"
         d="M 0,0 5,-5 -12.5,0 5,5 0,0 Z"
         style="fill:#000000;fill-opacity:1;fill-rule:evenodd;stroke:#000000;stroke-width:1pt;stroke-opacity:1"
         transform="matrix(0.8,0,0,0.8,10,0)"
         inkscape:connector-curvature="0" />
    </marker>
    <marker
       inkscape:isstock="true"
       style="overflow:visible"
       id="marker9528"
       refX="0"
       refY="0"
       orient="auto"
       inkscape:stockid="Arrow1Lend">
      <path
         transform="matrix(-0.8,0,0,-0.8,-10,0)"
         style="fill:#000000;fill-opacity:1;fill-rule:evenodd;stroke:#000000;stroke-width:1pt;stroke-opacity:1"
         d="M 0,0 5,-5 -12.5,0 5,5 0,0 Z"
         id="path9530"
         inkscape:connector-curvature="0" />
    </marker>
    <marker
       inkscape:isstock="true"
       style="overflow:visible"
       id="marker9409"
       refX="0"
       refY="0"
       orient="auto"
       inkscape:stockid="Arrow1Lend">
      <path
         transform="matrix(-0.8,0,0,-0.8,-10,0)"
         style="fill:#000000;fill-opacity:1;fill-rule:evenodd;stroke:#000000;stroke-width:1pt;stroke-opacity:1"
         d="M 0,0 5,-5 -12.5,0 5,5 0,0 Z"
         id="path9411"
         inkscape:connector-curvature="0" />
    </marker>
  </defs>
  <sodipodi:namedview
     id="base"
     pagecolor="#ffffff"
     bordercolor="#666666"
     borderopacity="1.0"
     inkscape:pageopacity="0.0"
     inkscape:pageshadow="2"
     inkscape:zoom="0.5"
     inkscape:cx="358.42481"
     inkscape:cy="378.57328"
     inkscape:document-units="px"
     inkscape:current-layer="layer1"
     showgrid="false"
     inkscape:window-width="1366"
     inkscape:window-height="705"
     inkscape:window-x="-8"
     inkscape:window-y="-8"
     inkscape:window-maximized="1"
     fit-margin-top="0"
     fit-margin-left="0"
     fit-margin-right="0"
     fit-margin-bottom="0" />
  <metadata
     id="metadata7">
    <rdf:RDF>
      <cc:Work
         rdf:about="">
        <dc:format>image/svg+xml</dc:format>
        <dc:type
           rdf:resource="http://purl.org/dc/dcmitype/StillImage" />
        <dc:title></dc:title>
      </cc:Work>
    </rdf:RDF>
  </metadata>
  <g
     inkscape:label="Layer 1"
     inkscape:groupmode="layer"
     id="layer1"
     transform="translate(-107.23074,-353.90916)">
    <g
       id="g4338"
       transform="matrix(2.8769012,0,0,2.4645974,-831.12313,-932.16422)">
      <rect
         ry="0.74130428"
         y="609.11743"
         x="332.55185"
         height="19.273912"
         width="0.98452342"
         id="rect4243"
         style="fill:none;stroke:#000000;stroke-width:1.79498816;stroke-miterlimit:4;stroke-dasharray:none;stroke-dashoffset:0;stroke-opacity:1" />
      <path
         inkscape:connector-curvature="0"
         id="rect4247"
         d="m 327.45694,628.13748 c -0.50281,0 -0.90692,0.36164 -0.90692,0.80761 l 0,8.04707 c 0,0.44596 0.40411,0.80761 0.90692,0.80761 l 33.08612,0 c 0.50281,0 0.90692,-0.36165 0.90692,-0.80761 l 0,-8.04707 c 0,-0.44597 -0.40411,-0.80761 -0.90692,-0.80761 l -33.08612,0 z m 3.83892,3.24014 3.03034,0 c 0.45198,0 0.81587,0.32275 0.81587,0.72362 l 0,3.92824 c 0,0.4009 -0.36389,0.72363 -0.81587,0.72363 l -3.03034,0 c -0.45198,0 -0.81587,-0.32273 -0.81587,-0.72363 l 0,-3.92824 c 0,-0.40087 0.36389,-0.72362 0.81587,-0.72362 z m 6.76,3.13032 a 1.3397101,1.1882456 0 0 1 1.34035,1.18881 1.3397101,1.1882456 0 0 1 -1.34035,1.18881 1.3397101,1.1882456 0 0 1 -1.34035,-1.18881 1.3397101,1.1882456 0 0 1 1.34035,-1.18881 z"
         style="fill:#000000;fill-opacity:1;stroke:#000000;stroke-width:0.76351279;stroke-miterlimit:4;stroke-dasharray:none;stroke-dashoffset:0;stroke-opacity:1" />
      <rect
         ry="0.74130428"
         y="609.11743"
         x="351.89944"
         height="19.273912"
         width="0.98452342"
         id="rect4243-8"
         style="fill:none;stroke:#000000;stroke-width:1.79498816;stroke-miterlimit:4;stroke-dasharray:none;stroke-dashoffset:0;stroke-opacity:1" />
    </g>
    <g
       id="g4308"
       transform="matrix(2.8769012,0,0,2.4645974,-794.50616,-1095.9812)">
      <g
         id="g4295">
        <rect
           style="fill:none;stroke:#000000;stroke-width:1.29999995;stroke-miterlimit:4;stroke-dasharray:none;stroke-dashoffset:0;stroke-opacity:1"
           id="rect4193"
           width="9.5964489"
           height="40.406101"
           x="385.87827"
           y="605.62225"
           ry="4.7982244" />
        <rect
           style="fill:none;stroke:#000000;stroke-width:1.29999995;stroke-miterlimit:4;stroke-dasharray:none;stroke-dashoffset:0;stroke-opacity:1"
           id="rect4193-5"
           width="9.5964489"
           height="40.406101"
           x="405.23804"
           y="605.62225"
           ry="4.7982244" />
        <rect
           style="fill:none;stroke:#000000;stroke-width:1.29999995;stroke-miterlimit:4;stroke-dasharray:none;stroke-dashoffset:0;stroke-opacity:1"
           id="rect4193-2"
           width="9.5964489"
           height="40.406101"
           x="395.55817"
           y="605.62225"
           ry="4.7982244" />
        <rect
           style="fill:none;stroke:#000000;stroke-width:1.29999995;stroke-miterlimit:4;stroke-dasharray:none;stroke-dashoffset:0;stroke-opacity:1"
           id="rect4193-9"
           width="9.5964489"
           height="40.406101"
           x="414.91794"
           y="605.62225"
           ry="4.7982244" />
        <path
           style="fill:none;fill-rule:evenodd;stroke:#000000;stroke-width:1px;stroke-linecap:butt;stroke-linejoin:miter;stroke-opacity:1"
           d="m 385.49947,613.956 c -8.71257,0 -8.71257,0 -8.71257,0"
           id="path4235"
           inkscape:connector-curvature="0" />
        <path
           style="fill:none;fill-rule:evenodd;stroke:#000000;stroke-width:1px;stroke-linecap:butt;stroke-linejoin:miter;stroke-opacity:1"
           d="m 425.14795,613.9562 c 7.95495,0 7.95495,0 7.95495,0 l 0,-7.70241 0.25254,0"
           id="path4237"
           inkscape:connector-curvature="0" />
      </g>
      <path
         sodipodi:nodetypes="cssc"
         inkscape:connector-curvature="0"
         id="path4272"
         d="m 397.2727,588.73411 c -4.5962,2.2981 -7.20119,2.82317 -2.65166,4.77297 4.94975,2.12132 4.60053,2.11872 -0.7071,5.3033 -4.41942,2.65165 2.12132,4.94975 2.12132,4.94975"
         style="fill:none;fill-rule:evenodd;stroke:#000000;stroke-width:1px;stroke-linecap:butt;stroke-linejoin:miter;stroke-opacity:1" />
      <path
         sodipodi:nodetypes="cssc"
         inkscape:connector-curvature="0"
         id="path4272-3"
         d="m 407.10006,588.73411 c -4.5962,2.2981 -7.20119,2.82317 -2.65166,4.77297 4.94975,2.12132 4.60053,2.11872 -0.7071,5.3033 -4.41942,2.65165 2.12132,4.94975 2.12132,4.94975"
         style="fill:none;fill-rule:evenodd;stroke:#000000;stroke-width:1px;stroke-linecap:butt;stroke-linejoin:miter;stroke-opacity:1" />
      <path
         sodipodi:nodetypes="cssc"
         inkscape:connector-curvature="0"
         id="path4272-4"
         d="m 416.92742,588.73411 c -4.5962,2.2981 -7.20119,2.82317 -2.65166,4.77297 4.94975,2.12132 4.60053,2.11872 -0.7071,5.3033 -4.41942,2.65165 2.12132,4.94975 2.12132,4.94975"
         style="fill:none;fill-rule:evenodd;stroke:#000000;stroke-width:1px;stroke-linecap:butt;stroke-linejoin:miter;stroke-opacity:1" />
    </g>
    <g
       id="g5090"
       transform="matrix(5.3404576,0,0,3.8436175,-2378.6859,-1483.9818)">
      <g
         id="g5008">
        <ellipse
           style="fill:#000000;fill-opacity:1;stroke:#000000;stroke-width:0.17483625;stroke-miterlimit:4;stroke-dasharray:none;stroke-dashoffset:0;stroke-opacity:1"
           id="path4140-5"
           cx="516.0871"
           cy="591.8291"
           rx="4.6759501"
           ry="4.4107847" />
        <rect
           style="fill:#000000;fill-opacity:1;stroke:#000000;stroke-width:0.13113058;stroke-miterlimit:4;stroke-dasharray:none;stroke-dashoffset:0;stroke-opacity:1"
           id="rect4243-8-2"
           width="3.2267761"
           height="16.237103"
           x="514.47369"
           y="572.69128"
           ry="0.62450385" />
        <rect
           style="fill:none;fill-opacity:1;stroke:#000000;stroke-width:0.15349083;stroke-miterlimit:4;stroke-dasharray:none;stroke-dashoffset:0;stroke-opacity:1"
           id="rect4243-8-2-7"
           width="3.204416"
           height="22.401926"
           x="514.48486"
           y="559.79834"
           ry="0.86161244" />
        <g
           id="g4425"
           transform="translate(-7.8794853,-9.0156115)">
          <path
             inkscape:connector-curvature="0"
             id="path4392"
             d="m 523.52419,571.26442 c 2.12132,0 2.12132,0 2.12132,0"
             style="fill:none;fill-rule:evenodd;stroke:#000000;stroke-width:0.67936587px;stroke-linecap:butt;stroke-linejoin:miter;stroke-opacity:1" />
          <path
             inkscape:connector-curvature="0"
             id="path4392-6"
             d="m 523.52419,574.53479 c 2.12132,0 2.12132,0 2.12132,0"
             style="fill:none;fill-rule:evenodd;stroke:#000000;stroke-width:0.67936587px;stroke-linecap:butt;stroke-linejoin:miter;stroke-opacity:1" />
          <path
             inkscape:connector-curvature="0"
             id="path4392-7"
             d="m 523.52419,577.80517 c 2.12132,0 2.12132,0 2.12132,0"
             style="fill:none;fill-rule:evenodd;stroke:#000000;stroke-width:0.67936587px;stroke-linecap:butt;stroke-linejoin:miter;stroke-opacity:1" />
          <path
             inkscape:connector-curvature="0"
             id="path4392-8"
             d="m 523.52419,581.07553 c 2.12132,0 2.12132,0 2.12132,0"
             style="fill:none;fill-rule:evenodd;stroke:#000000;stroke-width:0.67936587px;stroke-linecap:butt;stroke-linejoin:miter;stroke-opacity:1" />
        </g>
      </g>
    </g>
    <g
       id="g5090-4"
       transform="matrix(5.3404576,0,0,3.8436175,-2171.408,-1651.1712)">
      <g
         id="g5008-5">
        <ellipse
           style="fill:#000000;fill-opacity:1;stroke:#000000;stroke-width:0.17483625;stroke-miterlimit:4;stroke-dasharray:none;stroke-dashoffset:0;stroke-opacity:1"
           id="path4140-5-6"
           cx="516.0871"
           cy="591.8291"
           rx="4.6759501"
           ry="4.4107847" />
        <rect
           style="fill:#000000;fill-opacity:1;stroke:#000000;stroke-width:0.13113058;stroke-miterlimit:4;stroke-dasharray:none;stroke-dashoffset:0;stroke-opacity:1"
           id="rect4243-8-2-4"
           width="3.2267761"
           height="16.237103"
           x="514.47369"
           y="572.69128"
           ry="0.62450385" />
        <rect
           style="fill:none;fill-opacity:1;stroke:#000000;stroke-width:0.15349083;stroke-miterlimit:4;stroke-dasharray:none;stroke-dashoffset:0;stroke-opacity:1"
           id="rect4243-8-2-7-3"
           width="3.204416"
           height="22.401926"
           x="514.48486"
           y="559.79834"
           ry="0.86161244" />
        <g
           id="g4425-2"
           transform="translate(-7.8794853,-9.0156115)">
          <path
             inkscape:connector-curvature="0"
             id="path4392-9"
             d="m 523.52419,571.26442 c 2.12132,0 2.12132,0 2.12132,0"
             style="fill:none;fill-rule:evenodd;stroke:#000000;stroke-width:0.67936587px;stroke-linecap:butt;stroke-linejoin:miter;stroke-opacity:1" />
          <path
             inkscape:connector-curvature="0"
             id="path4392-6-7"
             d="m 523.52419,574.53479 c 2.12132,0 2.12132,0 2.12132,0"
             style="fill:none;fill-rule:evenodd;stroke:#000000;stroke-width:0.67936587px;stroke-linecap:butt;stroke-linejoin:miter;stroke-opacity:1" />
          <path
             inkscape:connector-curvature="0"
             id="path4392-7-5"
             d="m 523.52419,577.80517 c 2.12132,0 2.12132,0 2.12132,0"
             style="fill:none;fill-rule:evenodd;stroke:#000000;stroke-width:0.67936587px;stroke-linecap:butt;stroke-linejoin:miter;stroke-opacity:1" />
          <path
             inkscape:connector-curvature="0"
             id="path4392-8-8"
             d="m 523.52419,581.07553 c 2.12132,0 2.12132,0 2.12132,0"
             style="fill:none;fill-rule:evenodd;stroke:#000000;stroke-width:0.67936587px;stroke-linecap:butt;stroke-linejoin:miter;stroke-opacity:1" />
        </g>
      </g>
    </g>
    <text
       xml:space="preserve"
       style="font-style:normal;font-variant:normal;font-weight:normal;font-stretch:normal;font-size:22.5px;line-height:125%;font-family:sans-serif;-inkscape-font-specification:'sans-serif, Normal';text-align:start;letter-spacing:0px;word-spacing:0px;writing-mode:lr-tb;text-anchor:start;fill:#000000;fill-opacity:1;stroke:none;stroke-width:1px;stroke-linecap:butt;stroke-linejoin:miter;stroke-opacity:1"
       x="118"
       y="662.36218"
       id="text9269"
       sodipodi:linespacing="125%"><tspan
         sodipodi:role="line"
         id="tspan9271"
         x="118"
         y="662.36218">Router</tspan></text>
    <text
       xml:space="preserve"
       style="font-style:normal;font-variant:normal;font-weight:normal;font-stretch:normal;font-size:22.5px;line-height:125%;font-family:sans-serif;-inkscape-font-specification:'sans-serif, Normal';text-align:center;letter-spacing:0px;word-spacing:0px;writing-mode:lr-tb;text-anchor:middle;fill:#000000;fill-opacity:1;stroke:none;stroke-width:1px;stroke-linecap:butt;stroke-linejoin:miter;stroke-opacity:1"
       x="373.40503"
       y="840.37122"
       id="text9269-4"
       sodipodi:linespacing="125%"><tspan
         sodipodi:role="line"
         id="tspan9271-1"
         x="377.36011"
         y="840.37122">Temperature </tspan><tspan
         sodipodi:role="line"
         x="373.40503"
         y="868.49622"
         id="tspan9377">Sensor</tspan></text>
    <text
       xml:space="preserve"
       style="font-style:normal;font-variant:normal;font-weight:normal;font-stretch:normal;font-size:22.5px;line-height:125%;font-family:sans-serif;-inkscape-font-specification:'sans-serif, Normal';text-align:center;letter-spacing:0px;word-spacing:0px;writing-mode:lr-tb;text-anchor:middle;fill:#000000;fill-opacity:1;stroke:none;stroke-width:1px;stroke-linecap:butt;stroke-linejoin:miter;stroke-opacity:1"
       x="583.40503"
       y="664.37122"
       id="text9269-9"
       sodipodi:linespacing="125%"><tspan
         sodipodi:role="line"
         id="tspan9271-7"
         x="583.40503"
         y="664.37122">Temperature</tspan><tspan
         sodipodi:role="line"
         x="583.40503"
         y="692.49622"
         id="tspan9375"> Sensor</tspan></text>
    <text
       xml:space="preserve"
       style="font-style:normal;font-variant:normal;font-weight:normal;font-stretch:normal;font-size:22.5px;line-height:125%;font-family:sans-serif;-inkscape-font-specification:'sans-serif, Normal';text-align:center;letter-spacing:0px;word-spacing:0px;writing-mode:lr-tb;text-anchor:middle;fill:#000000;fill-opacity:1;stroke:none;stroke-width:1px;stroke-linecap:butt;stroke-linejoin:miter;stroke-opacity:1"
       x="367.40503"
       y="520.37122"
       id="text9269-3"
       sodipodi:linespacing="125%"><tspan
         sodipodi:role="line"
         id="tspan9271-2"
         x="371.36011"
         y="520.37122">Heating </tspan><tspan
         sodipodi:role="line"
         x="367.40503"
         y="548.49622"
         id="tspan9373">Actuator</tspan></text>
    <text
       xml:space="preserve"
       style="font-style:normal;font-variant:normal;font-weight:normal;font-stretch:normal;font-size:22.5px;line-height:125%;font-family:sans-serif;-inkscape-font-specification:'sans-serif, Normal';text-align:center;letter-spacing:0px;word-spacing:0px;writing-mode:lr-tb;text-anchor:middle;fill:#000000;fill-opacity:1;stroke:none;stroke-width:1px;stroke-linecap:butt;stroke-linejoin:miter;stroke-opacity:1"
       x="430.54932"
       y="746.30872"
       id="text9269-9-8"
       sodipodi:linespacing="125%"><tspan
         sodipodi:role="line"
         x="430.54932"
         y="746.30872"
         id="tspan9504">Task</tspan></text>
    <path
       style="fill:none;fill-rule:evenodd;stroke:#000000;stroke-width:1;stroke-linecap:butt;stroke-linejoin:miter;stroke-opacity:1;stroke-miterlimit:4;stroke-dasharray:1, 6;stroke-dashoffset:0;marker-start:url(#Arrow1Lstart);marker-end:url(#marker9904)"
       d="m 223.23074,632.83677 c 115,115 115,115 115,115"
       id="path9668"
       inkscape:connector-curvature="0" />
    <path
       style="fill:none;fill-rule:evenodd;stroke:#000000;stroke-width:1px;stroke-linecap:butt;stroke-linejoin:miter;stroke-opacity:1;marker-end:url(#marker9730)"
       d="m 541.23074,690.83677 c -78.41858,45.27499 -78.41858,45.27499 -78.41858,45.27499"
       id="path9672"
       inkscape:connector-curvature="0" />
    <path
       style="fill:none;fill-rule:evenodd;stroke:#000000;stroke-width:1px;stroke-linecap:butt;stroke-linejoin:miter;stroke-opacity:1;marker-end:url(#Arrow1Lend)"
       d="M 429.23074,722.83677 C 386.3551,562.82269 386.3551,562.82269 386.3551,562.82269"
       id="path9674"
       inkscape:connector-curvature="0" />
    <text
       xml:space="preserve"
       style="font-style:normal;font-variant:normal;font-weight:normal;font-stretch:normal;font-size:22.5px;line-height:125%;font-family:sans-serif;-inkscape-font-specification:'sans-serif, Normal';text-align:center;letter-spacing:0px;word-spacing:0px;writing-mode:lr-tb;text-anchor:middle;fill:#000000;fill-opacity:1;stroke:none;stroke-width:1px;stroke-linecap:butt;stroke-linejoin:miter;stroke-opacity:1"
       x="217.30215"
       y="705.21387"
       id="text9269-9-8-9"
       sodipodi:linespacing="125%"><tspan
         sodipodi:role="line"
         x="217.30215"
         y="705.21387"
         id="tspan9504-5">CoAP</tspan><tspan
         sodipodi:role="line"
         x="217.30215"
         y="733.33887"
         id="tspan10004">Instructions</tspan></text>
    <text
       xml:space="preserve"
       style="font-style:normal;font-variant:normal;font-weight:normal;font-stretch:normal;font-size:22.5px;line-height:125%;font-family:sans-serif;-inkscape-font-specification:'sans-serif, Normal';text-align:center;letter-spacing:0px;word-spacing:0px;writing-mode:lr-tb;text-anchor:middle;fill:#000000;fill-opacity:1;stroke:none;stroke-width:1px;stroke-linecap:butt;stroke-linejoin:miter;stroke-opacity:1"
       x="351.30215"
       y="615.21387"
       id="text9269-9-8-5"
       sodipodi:linespacing="125%"><tspan
         sodipodi:role="line"
         x="351.30215"
         y="615.21387"
         id="tspan9504-9">Output</tspan></text>
    <text
       xml:space="preserve"
       style="font-style:normal;font-variant:normal;font-weight:normal;font-stretch:normal;font-size:22.5px;line-height:125%;font-family:sans-serif;-inkscape-font-specification:'sans-serif, Normal';text-align:center;letter-spacing:0px;word-spacing:0px;writing-mode:lr-tb;text-anchor:middle;fill:#000000;fill-opacity:1;stroke:none;stroke-width:1px;stroke-linecap:butt;stroke-linejoin:miter;stroke-opacity:1"
       x="537.30212"
       y="735.21387"
       id="text9269-9-8-0"
       sodipodi:linespacing="125%"><tspan
         sodipodi:role="line"
         x="537.30212"
         y="735.21387"
         id="tspan9504-2">Input</tspan></text>
  </g>
</svg>
