<?xml version="1.0" encoding="UTF-8" standalone="no"?>
<!-- Created with Inkscape (http://www.inkscape.org/) -->

<svg
   xmlns:dc="http://purl.org/dc/elements/1.1/"
   xmlns:cc="http://creativecommons.org/ns#"
   xmlns:rdf="http://www.w3.org/1999/02/22-rdf-syntax-ns#"
   xmlns:svg="http://www.w3.org/2000/svg"
   xmlns="http://www.w3.org/2000/svg"
   xmlns:sodipodi="http://sodipodi.sourceforge.net/DTD/sodipodi-0.dtd"
   xmlns:inkscape="http://www.inkscape.org/namespaces/inkscape"
   width="328.31174mm"
   height="157.7451mm"
   viewBox="0 0 1163.3093 558.93934"
   id="svg2"
   version="1.1"
   inkscape:version="0.91 r13725"
   sodipodi:docname="example.svg">
  <defs
     id="defs4">
    <marker
       inkscape:isstock="true"
       style="overflow:visible"
       id="marker4702"
       refX="0"
       refY="0"
       orient="auto"
       inkscape:stockid="Arrow1Lend">
      <path
         transform="matrix(-0.8,0,0,-0.8,-10,0)"
         style="fill:#000000;fill-opacity:1;fill-rule:evenodd;stroke:#000000;stroke-width:1pt;stroke-opacity:1"
         d="M 0,0 5,-5 -12.5,0 5,5 0,0 Z"
         id="path4704"
         inkscape:connector-curvature="0" />
    </marker>
    <marker
       inkscape:stockid="Arrow1Lend"
       orient="auto"
       refY="0"
       refX="0"
       id="marker9904"
       style="overflow:visible"
       inkscape:isstock="true"
       inkscape:collect="always">
      <path
         id="path9906"
         d="M 0,0 5,-5 -12.5,0 5,5 0,0 Z"
         style="fill:#000000;fill-opacity:1;fill-rule:evenodd;stroke:#000000;stroke-width:1pt;stroke-opacity:1"
         transform="matrix(-0.8,0,0,-0.8,-10,0)"
         inkscape:connector-curvature="0" />
    </marker>
    <marker
       inkscape:stockid="Arrow1Lend"
       orient="auto"
       refY="0"
       refX="0"
       id="marker9834"
       style="overflow:visible"
       inkscape:isstock="true">
      <path
         id="path9836"
         d="M 0,0 5,-5 -12.5,0 5,5 0,0 Z"
         style="fill:#000000;fill-opacity:1;fill-rule:evenodd;stroke:#000000;stroke-width:1pt;stroke-opacity:1"
         transform="matrix(-0.8,0,0,-0.8,-10,0)"
         inkscape:connector-curvature="0" />
    </marker>
    <marker
       inkscape:isstock="true"
       style="overflow:visible"
       id="marker9730"
       refX="0"
       refY="0"
       orient="auto"
       inkscape:stockid="Arrow1Lend"
       inkscape:collect="always">
      <path
         transform="matrix(-0.8,0,0,-0.8,-10,0)"
         style="fill:#000000;fill-opacity:1;fill-rule:evenodd;stroke:#000000;stroke-width:1pt;stroke-opacity:1"
         d="M 0,0 5,-5 -12.5,0 5,5 0,0 Z"
         id="path9732"
         inkscape:connector-curvature="0" />
    </marker>
    <marker
       inkscape:stockid="Arrow1Lend"
       orient="auto"
       refY="0"
       refX="0"
       id="Arrow1Lend"
       style="overflow:visible"
       inkscape:isstock="true"
       inkscape:collect="always">
      <path
         id="path6014"
         d="M 0,0 5,-5 -12.5,0 5,5 0,0 Z"
         style="fill:#000000;fill-opacity:1;fill-rule:evenodd;stroke:#000000;stroke-width:1pt;stroke-opacity:1"
         transform="matrix(-0.8,0,0,-0.8,-10,0)"
         inkscape:connector-curvature="0" />
    </marker>
    <marker
       inkscape:stockid="Arrow1Lstart"
       orient="auto"
       refY="0"
       refX="0"
       id="Arrow1Lstart"
       style="overflow:visible"
       inkscape:isstock="true">
      <path
         id="path6011"
         d="M 0,0 5,-5 -12.5,0 5,5 0,0 Z"
         style="fill:#000000;fill-opacity:1;fill-rule:evenodd;stroke:#000000;stroke-width:1pt;stroke-opacity:1"
         transform="matrix(0.8,0,0,0.8,10,0)"
         inkscape:connector-curvature="0" />
    </marker>
    <marker
       inkscape:isstock="true"
       style="overflow:visible"
       id="marker9528"
       refX="0"
       refY="0"
       orient="auto"
       inkscape:stockid="Arrow1Lend">
      <path
         transform="matrix(-0.8,0,0,-0.8,-10,0)"
         style="fill:#000000;fill-opacity:1;fill-rule:evenodd;stroke:#000000;stroke-width:1pt;stroke-opacity:1"
         d="M 0,0 5,-5 -12.5,0 5,5 0,0 Z"
         id="path9530"
         inkscape:connector-curvature="0" />
    </marker>
    <marker
       inkscape:isstock="true"
       style="overflow:visible"
       id="marker9409"
       refX="0"
       refY="0"
       orient="auto"
       inkscape:stockid="Arrow1Lend">
      <path
         transform="matrix(-0.8,0,0,-0.8,-10,0)"
         style="fill:#000000;fill-opacity:1;fill-rule:evenodd;stroke:#000000;stroke-width:1pt;stroke-opacity:1"
         d="M 0,0 5,-5 -12.5,0 5,5 0,0 Z"
         id="path9411"
         inkscape:connector-curvature="0" />
    </marker>
    <marker
       inkscape:stockid="Arrow1Lend"
       orient="auto"
       refY="0"
       refX="0"
       id="marker4255"
       style="overflow:visible"
       inkscape:isstock="true">
      <path
         id="path4257"
         d="M 0,0 5,-5 -12.5,0 5,5 0,0 Z"
         style="fill:#000000;fill-opacity:1;fill-rule:evenodd;stroke:#000000;stroke-width:1pt;stroke-opacity:1"
         transform="matrix(-0.8,0,0,-0.8,-10,0)"
         inkscape:connector-curvature="0" />
    </marker>
    <marker
       inkscape:isstock="true"
       style="overflow:visible"
       id="marker9834-6"
       refX="0"
       refY="0"
       orient="auto"
       inkscape:stockid="Arrow1Lend">
      <path
         transform="matrix(-0.8,0,0,-0.8,-10,0)"
         style="fill:#000000;fill-opacity:1;fill-rule:evenodd;stroke:#000000;stroke-width:1pt;stroke-opacity:1"
         d="M 0,0 5,-5 -12.5,0 5,5 0,0 Z"
         id="path9836-3"
         inkscape:connector-curvature="0" />
    </marker>
    <marker
       inkscape:isstock="true"
       style="overflow:visible"
       id="Arrow1Lstart-4"
       refX="0"
       refY="0"
       orient="auto"
       inkscape:stockid="Arrow1Lstart">
      <path
         inkscape:connector-curvature="0"
         transform="matrix(0.8,0,0,0.8,10,0)"
         style="fill:#000000;fill-opacity:1;fill-rule:evenodd;stroke:#000000;stroke-width:1pt;stroke-opacity:1"
         d="M 0,0 5,-5 -12.5,0 5,5 0,0 Z"
         id="path6011-3" />
    </marker>
    <marker
       inkscape:stockid="Arrow1Lend"
       orient="auto"
       refY="0"
       refX="0"
       id="marker9528-1"
       style="overflow:visible"
       inkscape:isstock="true">
      <path
         inkscape:connector-curvature="0"
         id="path9530-9"
         d="M 0,0 5,-5 -12.5,0 5,5 0,0 Z"
         style="fill:#000000;fill-opacity:1;fill-rule:evenodd;stroke:#000000;stroke-width:1pt;stroke-opacity:1"
         transform="matrix(-0.8,0,0,-0.8,-10,0)" />
    </marker>
    <marker
       inkscape:stockid="Arrow1Lend"
       orient="auto"
       refY="0"
       refX="0"
       id="marker9409-3"
       style="overflow:visible"
       inkscape:isstock="true">
      <path
         inkscape:connector-curvature="0"
         id="path9411-3"
         d="M 0,0 5,-5 -12.5,0 5,5 0,0 Z"
         style="fill:#000000;fill-opacity:1;fill-rule:evenodd;stroke:#000000;stroke-width:1pt;stroke-opacity:1"
         transform="matrix(-0.8,0,0,-0.8,-10,0)" />
    </marker>
    <marker
       inkscape:stockid="Arrow1Lend"
       orient="auto"
       refY="0"
       refX="0"
       id="marker4255-5"
       style="overflow:visible"
       inkscape:isstock="true">
      <path
         inkscape:connector-curvature="0"
         id="path4257-4"
         d="M 0,0 5,-5 -12.5,0 5,5 0,0 Z"
         style="fill:#000000;fill-opacity:1;fill-rule:evenodd;stroke:#000000;stroke-width:1pt;stroke-opacity:1"
         transform="matrix(-0.8,0,0,-0.8,-10,0)" />
    </marker>
    <marker
       inkscape:isstock="true"
       style="overflow:visible"
       id="marker9904-5"
       refX="0"
       refY="0"
       orient="auto"
       inkscape:stockid="Arrow1Lend">
      <path
         transform="matrix(-0.8,0,0,-0.8,-10,0)"
         style="fill:#000000;fill-opacity:1;fill-rule:evenodd;stroke:#000000;stroke-width:1pt;stroke-opacity:1"
         d="M 0,0 5,-5 -12.5,0 5,5 0,0 Z"
         id="path9906-7"
         inkscape:connector-curvature="0" />
    </marker>
    <marker
       inkscape:isstock="true"
       style="overflow:visible"
       id="marker9834-69"
       refX="0"
       refY="0"
       orient="auto"
       inkscape:stockid="Arrow1Lend">
      <path
         transform="matrix(-0.8,0,0,-0.8,-10,0)"
         style="fill:#000000;fill-opacity:1;fill-rule:evenodd;stroke:#000000;stroke-width:1pt;stroke-opacity:1"
         d="M 0,0 5,-5 -12.5,0 5,5 0,0 Z"
         id="path9836-4"
         inkscape:connector-curvature="0" />
    </marker>
    <marker
       inkscape:isstock="true"
       style="overflow:visible"
       id="Arrow1Lstart-7"
       refX="0"
       refY="0"
       orient="auto"
       inkscape:stockid="Arrow1Lstart">
      <path
         inkscape:connector-curvature="0"
         transform="matrix(0.8,0,0,0.8,10,0)"
         style="fill:#000000;fill-opacity:1;fill-rule:evenodd;stroke:#000000;stroke-width:1pt;stroke-opacity:1"
         d="M 0,0 5,-5 -12.5,0 5,5 0,0 Z"
         id="path6011-7" />
    </marker>
    <marker
       inkscape:stockid="Arrow1Lend"
       orient="auto"
       refY="0"
       refX="0"
       id="marker9528-4"
       style="overflow:visible"
       inkscape:isstock="true">
      <path
         inkscape:connector-curvature="0"
         id="path9530-6"
         d="M 0,0 5,-5 -12.5,0 5,5 0,0 Z"
         style="fill:#000000;fill-opacity:1;fill-rule:evenodd;stroke:#000000;stroke-width:1pt;stroke-opacity:1"
         transform="matrix(-0.8,0,0,-0.8,-10,0)" />
    </marker>
    <marker
       inkscape:stockid="Arrow1Lend"
       orient="auto"
       refY="0"
       refX="0"
       id="marker9409-4"
       style="overflow:visible"
       inkscape:isstock="true">
      <path
         inkscape:connector-curvature="0"
         id="path9411-5"
         d="M 0,0 5,-5 -12.5,0 5,5 0,0 Z"
         style="fill:#000000;fill-opacity:1;fill-rule:evenodd;stroke:#000000;stroke-width:1pt;stroke-opacity:1"
         transform="matrix(-0.8,0,0,-0.8,-10,0)" />
    </marker>
    <marker
       inkscape:isstock="true"
       style="overflow:visible"
       id="Arrow1Lstart-3"
       refX="0"
       refY="0"
       orient="auto"
       inkscape:stockid="Arrow1Lstart">
      <path
         inkscape:connector-curvature="0"
         transform="matrix(0.8,0,0,0.8,10,0)"
         style="fill:#000000;fill-opacity:1;fill-rule:evenodd;stroke:#000000;stroke-width:1pt;stroke-opacity:1"
         d="M 0,0 5,-5 -12.5,0 5,5 0,0 Z"
         id="path6011-3-6" />
    </marker>
    <marker
       inkscape:isstock="true"
       style="overflow:visible"
       id="marker9904-3"
       refX="0"
       refY="0"
       orient="auto"
       inkscape:stockid="Arrow1Lend">
      <path
         transform="matrix(-0.8,0,0,-0.8,-10,0)"
         style="fill:#000000;fill-opacity:1;fill-rule:evenodd;stroke:#000000;stroke-width:1pt;stroke-opacity:1"
         d="M 0,0 5,-5 -12.5,0 5,5 0,0 Z"
         id="path9906-4"
         inkscape:connector-curvature="0" />
    </marker>
    <marker
       inkscape:stockid="Arrow1Lend"
       orient="auto"
       refY="0"
       refX="0"
       id="marker4255-8"
       style="overflow:visible"
       inkscape:isstock="true">
      <path
         id="path4257-9"
         d="M 0,0 5,-5 -12.5,0 5,5 0,0 Z"
         style="fill:#000000;fill-opacity:1;fill-rule:evenodd;stroke:#000000;stroke-width:1pt;stroke-opacity:1"
         transform="matrix(-0.8,0,0,-0.8,-10,0)"
         inkscape:connector-curvature="0" />
    </marker>
    <marker
       inkscape:isstock="true"
       style="overflow:visible"
       id="marker9904-9"
       refX="0"
       refY="0"
       orient="auto"
       inkscape:stockid="Arrow1Lend">
      <path
         transform="matrix(-0.8,0,0,-0.8,-10,0)"
         style="fill:#000000;fill-opacity:1;fill-rule:evenodd;stroke:#000000;stroke-width:1pt;stroke-opacity:1"
         d="M 0,0 5,-5 -12.5,0 5,5 0,0 Z"
         id="path9906-3"
         inkscape:connector-curvature="0" />
    </marker>
    <marker
       inkscape:isstock="true"
       style="overflow:visible"
       id="marker9834-0"
       refX="0"
       refY="0"
       orient="auto"
       inkscape:stockid="Arrow1Lend">
      <path
         transform="matrix(-0.8,0,0,-0.8,-10,0)"
         style="fill:#000000;fill-opacity:1;fill-rule:evenodd;stroke:#000000;stroke-width:1pt;stroke-opacity:1"
         d="M 0,0 5,-5 -12.5,0 5,5 0,0 Z"
         id="path9836-6"
         inkscape:connector-curvature="0" />
    </marker>
    <marker
       inkscape:collect="always"
       inkscape:isstock="true"
       style="overflow:visible"
       id="Arrow1Lend-7"
       refX="0"
       refY="0"
       orient="auto"
       inkscape:stockid="Arrow1Lend">
      <path
         transform="matrix(-0.8,0,0,-0.8,-10,0)"
         style="fill:#000000;fill-opacity:1;fill-rule:evenodd;stroke:#000000;stroke-width:1pt;stroke-opacity:1"
         d="M 0,0 5,-5 -12.5,0 5,5 0,0 Z"
         id="path6014-6"
         inkscape:connector-curvature="0" />
    </marker>
    <marker
       inkscape:isstock="true"
       style="overflow:visible"
       id="Arrow1Lstart-9"
       refX="0"
       refY="0"
       orient="auto"
       inkscape:stockid="Arrow1Lstart">
      <path
         inkscape:connector-curvature="0"
         transform="matrix(0.8,0,0,0.8,10,0)"
         style="fill:#000000;fill-opacity:1;fill-rule:evenodd;stroke:#000000;stroke-width:1pt;stroke-opacity:1"
         d="M 0,0 5,-5 -12.5,0 5,5 0,0 Z"
         id="path6011-0" />
    </marker>
    <marker
       inkscape:stockid="Arrow1Lend"
       orient="auto"
       refY="0"
       refX="0"
       id="marker9528-16"
       style="overflow:visible"
       inkscape:isstock="true">
      <path
         inkscape:connector-curvature="0"
         id="path9530-7"
         d="M 0,0 5,-5 -12.5,0 5,5 0,0 Z"
         style="fill:#000000;fill-opacity:1;fill-rule:evenodd;stroke:#000000;stroke-width:1pt;stroke-opacity:1"
         transform="matrix(-0.8,0,0,-0.8,-10,0)" />
    </marker>
    <marker
       inkscape:stockid="Arrow1Lend"
       orient="auto"
       refY="0"
       refX="0"
       id="marker9409-8"
       style="overflow:visible"
       inkscape:isstock="true">
      <path
         inkscape:connector-curvature="0"
         id="path9411-0"
         d="M 0,0 5,-5 -12.5,0 5,5 0,0 Z"
         style="fill:#000000;fill-opacity:1;fill-rule:evenodd;stroke:#000000;stroke-width:1pt;stroke-opacity:1"
         transform="matrix(-0.8,0,0,-0.8,-10,0)" />
    </marker>
    <marker
       inkscape:isstock="true"
       style="overflow:visible"
       id="Arrow1Lstart-3-5"
       refX="0"
       refY="0"
       orient="auto"
       inkscape:stockid="Arrow1Lstart">
      <path
         inkscape:connector-curvature="0"
         transform="matrix(0.8,0,0,0.8,10,0)"
         style="fill:#000000;fill-opacity:1;fill-rule:evenodd;stroke:#000000;stroke-width:1pt;stroke-opacity:1"
         d="M 0,0 5,-5 -12.5,0 5,5 0,0 Z"
         id="path6011-3-7" />
    </marker>
    <marker
       inkscape:isstock="true"
       style="overflow:visible"
       id="marker9904-3-7"
       refX="0"
       refY="0"
       orient="auto"
       inkscape:stockid="Arrow1Lend">
      <path
         transform="matrix(-0.8,0,0,-0.8,-10,0)"
         style="fill:#000000;fill-opacity:1;fill-rule:evenodd;stroke:#000000;stroke-width:1pt;stroke-opacity:1"
         d="M 0,0 5,-5 -12.5,0 5,5 0,0 Z"
         id="path9906-4-3"
         inkscape:connector-curvature="0" />
    </marker>
    <marker
       inkscape:stockid="Arrow1Lend"
       orient="auto"
       refY="0"
       refX="0"
       id="marker4255-6"
       style="overflow:visible"
       inkscape:isstock="true">
      <path
         id="path4257-3"
         d="M 0,0 5,-5 -12.5,0 5,5 0,0 Z"
         style="fill:#000000;fill-opacity:1;fill-rule:evenodd;stroke:#000000;stroke-width:1pt;stroke-opacity:1"
         transform="matrix(-0.8,0,0,-0.8,-10,0)"
         inkscape:connector-curvature="0" />
    </marker>
  </defs>
  <sodipodi:namedview
     id="base"
     pagecolor="#ffffff"
     bordercolor="#666666"
     borderopacity="1.0"
     inkscape:pageopacity="0.0"
     inkscape:pageshadow="2"
     inkscape:zoom="0.5"
     inkscape:cx="259.61567"
     inkscape:cy="301.40737"
     inkscape:document-units="px"
     inkscape:current-layer="layer1"
     showgrid="false"
     inkscape:window-width="1366"
     inkscape:window-height="705"
     inkscape:window-x="-8"
     inkscape:window-y="-8"
     inkscape:window-maximized="1"
     fit-margin-top="0"
     fit-margin-left="0"
     fit-margin-right="0"
     fit-margin-bottom="0" />
  <metadata
     id="metadata7">
    <rdf:RDF>
      <cc:Work
         rdf:about="">
        <dc:format>image/svg+xml</dc:format>
        <dc:type
           rdf:resource="http://purl.org/dc/dcmitype/StillImage" />
        <dc:title></dc:title>
      </cc:Work>
    </rdf:RDF>
  </metadata>
  <g
     inkscape:label="Layer 1"
     inkscape:groupmode="layer"
     id="layer1"
     transform="translate(-107.23074,-353.90915)">
    <g
       id="g4372">
      <g
         transform="matrix(2.8769012,0,0,2.4645974,-831.12313,-932.16422)"
         id="g4338">
        <rect
           style="fill:none;stroke:#000000;stroke-width:1.79498816;stroke-miterlimit:4;stroke-dasharray:none;stroke-dashoffset:0;stroke-opacity:1"
           id="rect4243"
           width="0.98452342"
           height="19.273912"
           x="332.55185"
           y="609.11743"
           ry="0.74130428" />
        <path
           style="fill:#000000;fill-opacity:1;stroke:#000000;stroke-width:0.76351279;stroke-miterlimit:4;stroke-dasharray:none;stroke-dashoffset:0;stroke-opacity:1"
           d="m 327.45694,628.13748 c -0.50281,0 -0.90692,0.36164 -0.90692,0.80761 l 0,8.04707 c 0,0.44596 0.40411,0.80761 0.90692,0.80761 l 33.08612,0 c 0.50281,0 0.90692,-0.36165 0.90692,-0.80761 l 0,-8.04707 c 0,-0.44597 -0.40411,-0.80761 -0.90692,-0.80761 l -33.08612,0 z m 3.83892,3.24014 3.03034,0 c 0.45198,0 0.81587,0.32275 0.81587,0.72362 l 0,3.92824 c 0,0.4009 -0.36389,0.72363 -0.81587,0.72363 l -3.03034,0 c -0.45198,0 -0.81587,-0.32273 -0.81587,-0.72363 l 0,-3.92824 c 0,-0.40087 0.36389,-0.72362 0.81587,-0.72362 z m 6.76,3.13032 a 1.3397101,1.1882456 0 0 1 1.34035,1.18881 1.3397101,1.1882456 0 0 1 -1.34035,1.18881 1.3397101,1.1882456 0 0 1 -1.34035,-1.18881 1.3397101,1.1882456 0 0 1 1.34035,-1.18881 z"
           id="rect4247"
           inkscape:connector-curvature="0" />
        <rect
           style="fill:none;stroke:#000000;stroke-width:1.79498816;stroke-miterlimit:4;stroke-dasharray:none;stroke-dashoffset:0;stroke-opacity:1"
           id="rect4243-8"
           width="0.98452342"
           height="19.273912"
           x="351.89944"
           y="609.11743"
           ry="0.74130428" />
      </g>
      <g
         transform="matrix(2.8769012,0,0,2.4645974,-794.50616,-1095.9812)"
         id="g4308">
        <g
           id="g4295">
          <rect
             ry="4.7982244"
             y="605.62225"
             x="385.87827"
             height="40.406101"
             width="9.5964489"
             id="rect4193"
             style="fill:none;stroke:#000000;stroke-width:1.29999995;stroke-miterlimit:4;stroke-dasharray:none;stroke-dashoffset:0;stroke-opacity:1" />
          <rect
             ry="4.7982244"
             y="605.62225"
             x="405.23804"
             height="40.406101"
             width="9.5964489"
             id="rect4193-5"
             style="fill:none;stroke:#000000;stroke-width:1.29999995;stroke-miterlimit:4;stroke-dasharray:none;stroke-dashoffset:0;stroke-opacity:1" />
          <rect
             ry="4.7982244"
             y="605.62225"
             x="395.55817"
             height="40.406101"
             width="9.5964489"
             id="rect4193-2"
             style="fill:none;stroke:#000000;stroke-width:1.29999995;stroke-miterlimit:4;stroke-dasharray:none;stroke-dashoffset:0;stroke-opacity:1" />
          <rect
             ry="4.7982244"
             y="605.62225"
             x="414.91794"
             height="40.406101"
             width="9.5964489"
             id="rect4193-9"
             style="fill:none;stroke:#000000;stroke-width:1.29999995;stroke-miterlimit:4;stroke-dasharray:none;stroke-dashoffset:0;stroke-opacity:1" />
          <path
             inkscape:connector-curvature="0"
             id="path4235"
             d="m 385.49947,613.956 c -8.71257,0 -8.71257,0 -8.71257,0"
             style="fill:none;fill-rule:evenodd;stroke:#000000;stroke-width:1px;stroke-linecap:butt;stroke-linejoin:miter;stroke-opacity:1" />
          <path
             inkscape:connector-curvature="0"
             id="path4237"
             d="m 425.14795,613.9562 c 7.95495,0 7.95495,0 7.95495,0 l 0,-7.70241 0.25254,0"
             style="fill:none;fill-rule:evenodd;stroke:#000000;stroke-width:1px;stroke-linecap:butt;stroke-linejoin:miter;stroke-opacity:1" />
        </g>
        <path
           style="fill:none;fill-rule:evenodd;stroke:#000000;stroke-width:1px;stroke-linecap:butt;stroke-linejoin:miter;stroke-opacity:1"
           d="m 397.2727,588.73411 c -4.5962,2.2981 -7.20119,2.82317 -2.65166,4.77297 4.94975,2.12132 4.60053,2.11872 -0.7071,5.3033 -4.41942,2.65165 2.12132,4.94975 2.12132,4.94975"
           id="path4272"
           inkscape:connector-curvature="0"
           sodipodi:nodetypes="cssc" />
        <path
           style="fill:none;fill-rule:evenodd;stroke:#000000;stroke-width:1px;stroke-linecap:butt;stroke-linejoin:miter;stroke-opacity:1"
           d="m 407.10006,588.73411 c -4.5962,2.2981 -7.20119,2.82317 -2.65166,4.77297 4.94975,2.12132 4.60053,2.11872 -0.7071,5.3033 -4.41942,2.65165 2.12132,4.94975 2.12132,4.94975"
           id="path4272-3"
           inkscape:connector-curvature="0"
           sodipodi:nodetypes="cssc" />
        <path
           style="fill:none;fill-rule:evenodd;stroke:#000000;stroke-width:1px;stroke-linecap:butt;stroke-linejoin:miter;stroke-opacity:1"
           d="m 416.92742,588.73411 c -4.5962,2.2981 -7.20119,2.82317 -2.65166,4.77297 4.94975,2.12132 4.60053,2.11872 -0.7071,5.3033 -4.41942,2.65165 2.12132,4.94975 2.12132,4.94975"
           id="path4272-4"
           inkscape:connector-curvature="0"
           sodipodi:nodetypes="cssc" />
      </g>
      <g
         transform="matrix(5.3404576,0,0,3.8436175,-2378.6859,-1483.9818)"
         id="g5090">
        <g
           id="g5008">
          <ellipse
             ry="4.4107847"
             rx="4.6759501"
             cy="591.8291"
             cx="516.0871"
             id="path4140-5"
             style="fill:#000000;fill-opacity:1;stroke:#000000;stroke-width:0.17483625;stroke-miterlimit:4;stroke-dasharray:none;stroke-dashoffset:0;stroke-opacity:1" />
          <rect
             ry="0.62450385"
             y="572.69128"
             x="514.47369"
             height="16.237103"
             width="3.2267761"
             id="rect4243-8-2"
             style="fill:#000000;fill-opacity:1;stroke:#000000;stroke-width:0.13113058;stroke-miterlimit:4;stroke-dasharray:none;stroke-dashoffset:0;stroke-opacity:1" />
          <rect
             ry="0.86161244"
             y="559.79834"
             x="514.48486"
             height="22.401926"
             width="3.204416"
             id="rect4243-8-2-7"
             style="fill:none;fill-opacity:1;stroke:#000000;stroke-width:0.15349083;stroke-miterlimit:4;stroke-dasharray:none;stroke-dashoffset:0;stroke-opacity:1" />
          <g
             transform="translate(-7.8794853,-9.0156115)"
             id="g4425">
            <path
               style="fill:none;fill-rule:evenodd;stroke:#000000;stroke-width:0.67936587px;stroke-linecap:butt;stroke-linejoin:miter;stroke-opacity:1"
               d="m 523.52419,571.26442 c 2.12132,0 2.12132,0 2.12132,0"
               id="path4392"
               inkscape:connector-curvature="0" />
            <path
               style="fill:none;fill-rule:evenodd;stroke:#000000;stroke-width:0.67936587px;stroke-linecap:butt;stroke-linejoin:miter;stroke-opacity:1"
               d="m 523.52419,574.53479 c 2.12132,0 2.12132,0 2.12132,0"
               id="path4392-6"
               inkscape:connector-curvature="0" />
            <path
               style="fill:none;fill-rule:evenodd;stroke:#000000;stroke-width:0.67936587px;stroke-linecap:butt;stroke-linejoin:miter;stroke-opacity:1"
               d="m 523.52419,577.80517 c 2.12132,0 2.12132,0 2.12132,0"
               id="path4392-7"
               inkscape:connector-curvature="0" />
            <path
               style="fill:none;fill-rule:evenodd;stroke:#000000;stroke-width:0.67936587px;stroke-linecap:butt;stroke-linejoin:miter;stroke-opacity:1"
               d="m 523.52419,581.07553 c 2.12132,0 2.12132,0 2.12132,0"
               id="path4392-8"
               inkscape:connector-curvature="0" />
          </g>
        </g>
      </g>
      <g
         transform="matrix(5.3404576,0,0,3.8436175,-2171.408,-1651.1712)"
         id="g5090-4">
        <g
           id="g5008-5">
          <ellipse
             ry="4.4107847"
             rx="4.6759501"
             cy="591.8291"
             cx="516.0871"
             id="path4140-5-6"
             style="fill:#000000;fill-opacity:1;stroke:#000000;stroke-width:0.17483625;stroke-miterlimit:4;stroke-dasharray:none;stroke-dashoffset:0;stroke-opacity:1" />
          <rect
             ry="0.62450385"
             y="572.69128"
             x="514.47369"
             height="16.237103"
             width="3.2267761"
             id="rect4243-8-2-4"
             style="fill:#000000;fill-opacity:1;stroke:#000000;stroke-width:0.13113058;stroke-miterlimit:4;stroke-dasharray:none;stroke-dashoffset:0;stroke-opacity:1" />
          <rect
             ry="0.86161244"
             y="559.79834"
             x="514.48486"
             height="22.401926"
             width="3.204416"
             id="rect4243-8-2-7-3"
             style="fill:none;fill-opacity:1;stroke:#000000;stroke-width:0.15349083;stroke-miterlimit:4;stroke-dasharray:none;stroke-dashoffset:0;stroke-opacity:1" />
          <g
             transform="translate(-7.8794853,-9.0156115)"
             id="g4425-2">
            <path
               style="fill:none;fill-rule:evenodd;stroke:#000000;stroke-width:0.67936587px;stroke-linecap:butt;stroke-linejoin:miter;stroke-opacity:1"
               d="m 523.52419,571.26442 c 2.12132,0 2.12132,0 2.12132,0"
               id="path4392-9"
               inkscape:connector-curvature="0" />
            <path
               style="fill:none;fill-rule:evenodd;stroke:#000000;stroke-width:0.67936587px;stroke-linecap:butt;stroke-linejoin:miter;stroke-opacity:1"
               d="m 523.52419,574.53479 c 2.12132,0 2.12132,0 2.12132,0"
               id="path4392-6-7"
               inkscape:connector-curvature="0" />
            <path
               style="fill:none;fill-rule:evenodd;stroke:#000000;stroke-width:0.67936587px;stroke-linecap:butt;stroke-linejoin:miter;stroke-opacity:1"
               d="m 523.52419,577.80517 c 2.12132,0 2.12132,0 2.12132,0"
               id="path4392-7-5"
               inkscape:connector-curvature="0" />
            <path
               style="fill:none;fill-rule:evenodd;stroke:#000000;stroke-width:0.67936587px;stroke-linecap:butt;stroke-linejoin:miter;stroke-opacity:1"
               d="m 523.52419,581.07553 c 2.12132,0 2.12132,0 2.12132,0"
               id="path4392-8-8"
               inkscape:connector-curvature="0" />
          </g>
        </g>
      </g>
      <text
         sodipodi:linespacing="125%"
         id="text9269"
         y="662.36218"
         x="118"
         style="font-style:normal;font-variant:normal;font-weight:normal;font-stretch:normal;font-size:22.5px;line-height:125%;font-family:sans-serif;-inkscape-font-specification:'sans-serif, Normal';text-align:start;letter-spacing:0px;word-spacing:0px;writing-mode:lr-tb;text-anchor:start;fill:#000000;fill-opacity:1;stroke:none;stroke-width:1px;stroke-linecap:butt;stroke-linejoin:miter;stroke-opacity:1"
         xml:space="preserve"><tspan
           y="662.36218"
           x="118"
           id="tspan9271"
           sodipodi:role="line">Router</tspan></text>
      <text
         sodipodi:linespacing="125%"
         id="text9269-4"
         y="840.37122"
         x="373.40503"
         style="font-style:normal;font-variant:normal;font-weight:normal;font-stretch:normal;font-size:22.5px;line-height:125%;font-family:sans-serif;-inkscape-font-specification:'sans-serif, Normal';text-align:center;letter-spacing:0px;word-spacing:0px;writing-mode:lr-tb;text-anchor:middle;fill:#000000;fill-opacity:1;stroke:none;stroke-width:1px;stroke-linecap:butt;stroke-linejoin:miter;stroke-opacity:1"
         xml:space="preserve"><tspan
           y="840.37122"
           x="377.36011"
           id="tspan9271-1"
           sodipodi:role="line">Temperature </tspan><tspan
           id="tspan9377"
           y="868.49622"
           x="373.40503"
           sodipodi:role="line">Sensor</tspan></text>
      <text
         sodipodi:linespacing="125%"
         id="text9269-9"
         y="664.37122"
         x="583.40503"
         style="font-style:normal;font-variant:normal;font-weight:normal;font-stretch:normal;font-size:22.5px;line-height:125%;font-family:sans-serif;-inkscape-font-specification:'sans-serif, Normal';text-align:center;letter-spacing:0px;word-spacing:0px;writing-mode:lr-tb;text-anchor:middle;fill:#000000;fill-opacity:1;stroke:none;stroke-width:1px;stroke-linecap:butt;stroke-linejoin:miter;stroke-opacity:1"
         xml:space="preserve"><tspan
           y="664.37122"
           x="583.40503"
           id="tspan9271-7"
           sodipodi:role="line">Temperature</tspan><tspan
           id="tspan9375"
           y="692.49622"
           x="583.40503"
           sodipodi:role="line"> Sensor</tspan></text>
      <text
         sodipodi:linespacing="125%"
         id="text9269-3"
         y="520.37122"
         x="367.40503"
         style="font-style:normal;font-variant:normal;font-weight:normal;font-stretch:normal;font-size:22.5px;line-height:125%;font-family:sans-serif;-inkscape-font-specification:'sans-serif, Normal';text-align:center;letter-spacing:0px;word-spacing:0px;writing-mode:lr-tb;text-anchor:middle;fill:#000000;fill-opacity:1;stroke:none;stroke-width:1px;stroke-linecap:butt;stroke-linejoin:miter;stroke-opacity:1"
         xml:space="preserve"><tspan
           y="520.37122"
           x="371.36011"
           id="tspan9271-2"
           sodipodi:role="line">Heating </tspan><tspan
           id="tspan9373"
           y="548.49622"
           x="367.40503"
           sodipodi:role="line">Actuator</tspan></text>
      <text
         sodipodi:linespacing="125%"
         id="text9269-9-8"
         y="746.30872"
         x="430.54932"
         style="font-style:normal;font-variant:normal;font-weight:normal;font-stretch:normal;font-size:22.5px;line-height:125%;font-family:sans-serif;-inkscape-font-specification:'sans-serif, Normal';text-align:center;letter-spacing:0px;word-spacing:0px;writing-mode:lr-tb;text-anchor:middle;fill:#000000;fill-opacity:1;stroke:none;stroke-width:1px;stroke-linecap:butt;stroke-linejoin:miter;stroke-opacity:1"
         xml:space="preserve"><tspan
           id="tspan9504"
           y="746.30872"
           x="430.54932"
           sodipodi:role="line">Task</tspan></text>
      <path
         inkscape:connector-curvature="0"
         id="path9668"
         d="m 223.23074,632.83677 c 115,115 115,115 115,115"
         style="fill:none;fill-rule:evenodd;stroke:#000000;stroke-width:1;stroke-linecap:butt;stroke-linejoin:miter;stroke-miterlimit:4;stroke-dasharray:1, 6;stroke-dashoffset:0;stroke-opacity:1;marker-start:url(#Arrow1Lstart);marker-end:url(#marker9904)" />
      <path
         inkscape:connector-curvature="0"
         id="path9672"
         d="m 541.23074,690.83677 c -78.41858,45.27499 -78.41858,45.27499 -78.41858,45.27499"
         style="fill:none;fill-rule:evenodd;stroke:#000000;stroke-width:1px;stroke-linecap:butt;stroke-linejoin:miter;stroke-opacity:1;marker-end:url(#marker9730)" />
      <path
         inkscape:connector-curvature="0"
         id="path9674"
         d="M 429.23074,722.83677 C 386.3551,562.82269 386.3551,562.82269 386.3551,562.82269"
         style="fill:none;fill-rule:evenodd;stroke:#000000;stroke-width:1px;stroke-linecap:butt;stroke-linejoin:miter;stroke-opacity:1;marker-end:url(#Arrow1Lend)" />
      <text
         sodipodi:linespacing="125%"
         id="text9269-9-8-9"
         y="705.21387"
         x="217.30215"
         style="font-style:normal;font-variant:normal;font-weight:normal;font-stretch:normal;font-size:22.5px;line-height:125%;font-family:sans-serif;-inkscape-font-specification:'sans-serif, Normal';text-align:center;letter-spacing:0px;word-spacing:0px;writing-mode:lr-tb;text-anchor:middle;fill:#000000;fill-opacity:1;stroke:none;stroke-width:1px;stroke-linecap:butt;stroke-linejoin:miter;stroke-opacity:1"
         xml:space="preserve"><tspan
           id="tspan9504-5"
           y="705.21387"
           x="217.30215"
           sodipodi:role="line">CoAP</tspan><tspan
           id="tspan10004"
           y="733.33887"
           x="217.30215"
           sodipodi:role="line">Instructions</tspan></text>
      <text
         sodipodi:linespacing="125%"
         id="text9269-9-8-5"
         y="615.21387"
         x="351.30215"
         style="font-style:normal;font-variant:normal;font-weight:normal;font-stretch:normal;font-size:22.5px;line-height:125%;font-family:sans-serif;-inkscape-font-specification:'sans-serif, Normal';text-align:center;letter-spacing:0px;word-spacing:0px;writing-mode:lr-tb;text-anchor:middle;fill:#000000;fill-opacity:1;stroke:none;stroke-width:1px;stroke-linecap:butt;stroke-linejoin:miter;stroke-opacity:1"
         xml:space="preserve"><tspan
           id="tspan9504-9"
           y="615.21387"
           x="351.30215"
           sodipodi:role="line">Output</tspan></text>
      <text
         sodipodi:linespacing="125%"
         id="text9269-9-8-0"
         y="735.21387"
         x="537.30212"
         style="font-style:normal;font-variant:normal;font-weight:normal;font-stretch:normal;font-size:22.5px;line-height:125%;font-family:sans-serif;-inkscape-font-specification:'sans-serif, Normal';text-align:center;letter-spacing:0px;word-spacing:0px;writing-mode:lr-tb;text-anchor:middle;fill:#000000;fill-opacity:1;stroke:none;stroke-width:1px;stroke-linecap:butt;stroke-linejoin:miter;stroke-opacity:1"
         xml:space="preserve"><tspan
           id="tspan9504-2"
           y="735.21387"
           x="537.30212"
           sodipodi:role="line">Input</tspan></text>
      <text
         sodipodi:linespacing="125%"
         id="text9269-9-8-0-0-3"
         y="802.64783"
         x="451.2012"
         style="font-style:normal;font-variant:normal;font-weight:normal;font-stretch:normal;font-size:22.5px;line-height:125%;font-family:sans-serif;-inkscape-font-specification:'sans-serif, Normal';text-align:center;letter-spacing:0px;word-spacing:0px;writing-mode:lr-tb;text-anchor:middle;fill:#000000;fill-opacity:1;stroke:none;stroke-width:1px;stroke-linecap:butt;stroke-linejoin:miter;stroke-opacity:1"
         xml:space="preserve"><tspan
           id="tspan9504-2-3-6"
           y="802.64783"
           x="451.2012"
           sodipodi:role="line">Input</tspan></text>
      <path
         sodipodi:nodetypes="cc"
         inkscape:connector-curvature="0"
         id="path4247-5"
         d="m 451.12981,836.27077 c 96,-28 8,-82 8,-82"
         style="fill:none;fill-rule:evenodd;stroke:#000000;stroke-width:1;stroke-linecap:butt;stroke-linejoin:miter;stroke-miterlimit:4;stroke-dasharray:1, 4;stroke-dashoffset:0;stroke-opacity:1;marker-end:url(#marker4702)" />
      <text
         sodipodi:linespacing="125%"
         id="text4904"
         y="720.34436"
         x="504.62476"
         style="font-style:normal;font-weight:normal;font-size:40px;line-height:125%;font-family:sans-serif;letter-spacing:0px;word-spacing:0px;fill:#000000;fill-opacity:1;stroke:none;stroke-width:1px;stroke-linecap:butt;stroke-linejoin:miter;stroke-opacity:1"
         xml:space="preserve"><tspan
           y="720.34436"
           x="504.62476"
           id="tspan4906"
           sodipodi:role="line">X</tspan></text>
    </g>
    <g
       id="g4989"
       transform="translate(0,14.536197)">
      <g
         transform="matrix(2.8769012,0,0,2.4645974,-214.43244,-946.7004)"
         id="g4338-0">
        <rect
           style="fill:none;stroke:#000000;stroke-width:1.79498816;stroke-miterlimit:4;stroke-dasharray:none;stroke-dashoffset:0;stroke-opacity:1"
           id="rect4243-0"
           width="0.98452342"
           height="19.273912"
           x="332.55185"
           y="609.11743"
           ry="0.74130428" />
        <path
           style="fill:#000000;fill-opacity:1;stroke:#000000;stroke-width:0.76351279;stroke-miterlimit:4;stroke-dasharray:none;stroke-dashoffset:0;stroke-opacity:1"
           d="m 327.45694,628.13748 c -0.50281,0 -0.90692,0.36164 -0.90692,0.80761 l 0,8.04707 c 0,0.44596 0.40411,0.80761 0.90692,0.80761 l 33.08612,0 c 0.50281,0 0.90692,-0.36165 0.90692,-0.80761 l 0,-8.04707 c 0,-0.44597 -0.40411,-0.80761 -0.90692,-0.80761 l -33.08612,0 z m 3.83892,3.24014 3.03034,0 c 0.45198,0 0.81587,0.32275 0.81587,0.72362 l 0,3.92824 c 0,0.4009 -0.36389,0.72363 -0.81587,0.72363 l -3.03034,0 c -0.45198,0 -0.81587,-0.32273 -0.81587,-0.72363 l 0,-3.92824 c 0,-0.40087 0.36389,-0.72362 0.81587,-0.72362 z m 6.76,3.13032 a 1.3397101,1.1882456 0 0 1 1.34035,1.18881 1.3397101,1.1882456 0 0 1 -1.34035,1.18881 1.3397101,1.1882456 0 0 1 -1.34035,-1.18881 1.3397101,1.1882456 0 0 1 1.34035,-1.18881 z"
           id="rect4247-6"
           inkscape:connector-curvature="0" />
        <rect
           style="fill:none;stroke:#000000;stroke-width:1.79498816;stroke-miterlimit:4;stroke-dasharray:none;stroke-dashoffset:0;stroke-opacity:1"
           id="rect4243-8-3"
           width="0.98452342"
           height="19.273912"
           x="351.89944"
           y="609.11743"
           ry="0.74130428" />
      </g>
      <g
         transform="matrix(2.8769012,0,0,2.4645974,-177.81547,-1110.5174)"
         id="g4308-9">
        <g
           id="g4295-5">
          <rect
             ry="4.7982244"
             y="605.62225"
             x="385.87827"
             height="40.406101"
             width="9.5964489"
             id="rect4193-6"
             style="fill:none;stroke:#000000;stroke-width:1.29999995;stroke-miterlimit:4;stroke-dasharray:none;stroke-dashoffset:0;stroke-opacity:1" />
          <rect
             ry="4.7982244"
             y="605.62225"
             x="405.23804"
             height="40.406101"
             width="9.5964489"
             id="rect4193-5-4"
             style="fill:none;stroke:#000000;stroke-width:1.29999995;stroke-miterlimit:4;stroke-dasharray:none;stroke-dashoffset:0;stroke-opacity:1" />
          <rect
             ry="4.7982244"
             y="605.62225"
             x="395.55817"
             height="40.406101"
             width="9.5964489"
             id="rect4193-2-6"
             style="fill:none;stroke:#000000;stroke-width:1.29999995;stroke-miterlimit:4;stroke-dasharray:none;stroke-dashoffset:0;stroke-opacity:1" />
          <rect
             ry="4.7982244"
             y="605.62225"
             x="414.91794"
             height="40.406101"
             width="9.5964489"
             id="rect4193-9-3"
             style="fill:none;stroke:#000000;stroke-width:1.29999995;stroke-miterlimit:4;stroke-dasharray:none;stroke-dashoffset:0;stroke-opacity:1" />
          <path
             inkscape:connector-curvature="0"
             id="path4235-7"
             d="m 385.49947,613.956 c -8.71257,0 -8.71257,0 -8.71257,0"
             style="fill:none;fill-rule:evenodd;stroke:#000000;stroke-width:1px;stroke-linecap:butt;stroke-linejoin:miter;stroke-opacity:1" />
          <path
             inkscape:connector-curvature="0"
             id="path4237-9"
             d="m 425.14795,613.9562 c 7.95495,0 7.95495,0 7.95495,0 l 0,-7.70241 0.25254,0"
             style="fill:none;fill-rule:evenodd;stroke:#000000;stroke-width:1px;stroke-linecap:butt;stroke-linejoin:miter;stroke-opacity:1" />
        </g>
        <path
           style="fill:none;fill-rule:evenodd;stroke:#000000;stroke-width:1px;stroke-linecap:butt;stroke-linejoin:miter;stroke-opacity:1"
           d="m 397.2727,588.73411 c -4.5962,2.2981 -7.20119,2.82317 -2.65166,4.77297 4.94975,2.12132 4.60053,2.11872 -0.7071,5.3033 -4.41942,2.65165 2.12132,4.94975 2.12132,4.94975"
           id="path4272-8"
           inkscape:connector-curvature="0"
           sodipodi:nodetypes="cssc" />
        <path
           style="fill:none;fill-rule:evenodd;stroke:#000000;stroke-width:1px;stroke-linecap:butt;stroke-linejoin:miter;stroke-opacity:1"
           d="m 407.10006,588.73411 c -4.5962,2.2981 -7.20119,2.82317 -2.65166,4.77297 4.94975,2.12132 4.60053,2.11872 -0.7071,5.3033 -4.41942,2.65165 2.12132,4.94975 2.12132,4.94975"
           id="path4272-3-1"
           inkscape:connector-curvature="0"
           sodipodi:nodetypes="cssc" />
        <path
           style="fill:none;fill-rule:evenodd;stroke:#000000;stroke-width:1px;stroke-linecap:butt;stroke-linejoin:miter;stroke-opacity:1"
           d="m 416.92742,588.73411 c -4.5962,2.2981 -7.20119,2.82317 -2.65166,4.77297 4.94975,2.12132 4.60053,2.11872 -0.7071,5.3033 -4.41942,2.65165 2.12132,4.94975 2.12132,4.94975"
           id="path4272-4-0"
           inkscape:connector-curvature="0"
           sodipodi:nodetypes="cssc" />
      </g>
      <g
         transform="matrix(5.3404576,0,0,3.8436175,-1761.9952,-1498.518)"
         id="g5090-1">
        <g
           id="g5008-7">
          <ellipse
             ry="4.4107847"
             rx="4.6759501"
             cy="591.8291"
             cx="516.0871"
             id="path4140-5-3"
             style="fill:#000000;fill-opacity:1;stroke:#000000;stroke-width:0.17483625;stroke-miterlimit:4;stroke-dasharray:none;stroke-dashoffset:0;stroke-opacity:1" />
          <rect
             ry="0.62450385"
             y="572.69128"
             x="514.47369"
             height="16.237103"
             width="3.2267761"
             id="rect4243-8-2-9"
             style="fill:#000000;fill-opacity:1;stroke:#000000;stroke-width:0.13113058;stroke-miterlimit:4;stroke-dasharray:none;stroke-dashoffset:0;stroke-opacity:1" />
          <rect
             ry="0.86161244"
             y="559.79834"
             x="514.48486"
             height="22.401926"
             width="3.204416"
             id="rect4243-8-2-7-9"
             style="fill:none;fill-opacity:1;stroke:#000000;stroke-width:0.15349083;stroke-miterlimit:4;stroke-dasharray:none;stroke-dashoffset:0;stroke-opacity:1" />
          <g
             transform="translate(-7.8794853,-9.0156115)"
             id="g4425-3">
            <path
               style="fill:none;fill-rule:evenodd;stroke:#000000;stroke-width:0.67936587px;stroke-linecap:butt;stroke-linejoin:miter;stroke-opacity:1"
               d="m 523.52419,571.26442 c 2.12132,0 2.12132,0 2.12132,0"
               id="path4392-5"
               inkscape:connector-curvature="0" />
            <path
               style="fill:none;fill-rule:evenodd;stroke:#000000;stroke-width:0.67936587px;stroke-linecap:butt;stroke-linejoin:miter;stroke-opacity:1"
               d="m 523.52419,574.53479 c 2.12132,0 2.12132,0 2.12132,0"
               id="path4392-6-8"
               inkscape:connector-curvature="0" />
            <path
               style="fill:none;fill-rule:evenodd;stroke:#000000;stroke-width:0.67936587px;stroke-linecap:butt;stroke-linejoin:miter;stroke-opacity:1"
               d="m 523.52419,577.80517 c 2.12132,0 2.12132,0 2.12132,0"
               id="path4392-7-0"
               inkscape:connector-curvature="0" />
            <path
               style="fill:none;fill-rule:evenodd;stroke:#000000;stroke-width:0.67936587px;stroke-linecap:butt;stroke-linejoin:miter;stroke-opacity:1"
               d="m 523.52419,581.07553 c 2.12132,0 2.12132,0 2.12132,0"
               id="path4392-8-7"
               inkscape:connector-curvature="0" />
          </g>
        </g>
      </g>
      <g
         transform="matrix(5.3404576,0,0,3.8436175,-1554.7173,-1665.7074)"
         id="g5090-4-6">
        <g
           id="g5008-5-1">
          <ellipse
             ry="4.4107847"
             rx="4.6759501"
             cy="591.8291"
             cx="516.0871"
             id="path4140-5-6-3"
             style="fill:#000000;fill-opacity:1;stroke:#000000;stroke-width:0.17483625;stroke-miterlimit:4;stroke-dasharray:none;stroke-dashoffset:0;stroke-opacity:1" />
          <rect
             ry="0.62450385"
             y="572.69128"
             x="514.47369"
             height="16.237103"
             width="3.2267761"
             id="rect4243-8-2-4-5"
             style="fill:#000000;fill-opacity:1;stroke:#000000;stroke-width:0.13113058;stroke-miterlimit:4;stroke-dasharray:none;stroke-dashoffset:0;stroke-opacity:1" />
          <rect
             ry="0.86161244"
             y="559.79834"
             x="514.48486"
             height="22.401926"
             width="3.204416"
             id="rect4243-8-2-7-3-7"
             style="fill:none;fill-opacity:1;stroke:#000000;stroke-width:0.15349083;stroke-miterlimit:4;stroke-dasharray:none;stroke-dashoffset:0;stroke-opacity:1" />
          <g
             transform="translate(-7.8794853,-9.0156115)"
             id="g4425-2-9">
            <path
               style="fill:none;fill-rule:evenodd;stroke:#000000;stroke-width:0.67936587px;stroke-linecap:butt;stroke-linejoin:miter;stroke-opacity:1"
               d="m 523.52419,571.26442 c 2.12132,0 2.12132,0 2.12132,0"
               id="path4392-9-4"
               inkscape:connector-curvature="0" />
            <path
               style="fill:none;fill-rule:evenodd;stroke:#000000;stroke-width:0.67936587px;stroke-linecap:butt;stroke-linejoin:miter;stroke-opacity:1"
               d="m 523.52419,574.53479 c 2.12132,0 2.12132,0 2.12132,0"
               id="path4392-6-7-0"
               inkscape:connector-curvature="0" />
            <path
               style="fill:none;fill-rule:evenodd;stroke:#000000;stroke-width:0.67936587px;stroke-linecap:butt;stroke-linejoin:miter;stroke-opacity:1"
               d="m 523.52419,577.80517 c 2.12132,0 2.12132,0 2.12132,0"
               id="path4392-7-5-8"
               inkscape:connector-curvature="0" />
            <path
               style="fill:none;fill-rule:evenodd;stroke:#000000;stroke-width:0.67936587px;stroke-linecap:butt;stroke-linejoin:miter;stroke-opacity:1"
               d="m 523.52419,581.07553 c 2.12132,0 2.12132,0 2.12132,0"
               id="path4392-8-8-5"
               inkscape:connector-curvature="0" />
          </g>
        </g>
      </g>
      <text
         sodipodi:linespacing="125%"
         id="text9269-37"
         y="647.82599"
         x="734.69067"
         style="font-style:normal;font-variant:normal;font-weight:normal;font-stretch:normal;font-size:22.5px;line-height:125%;font-family:sans-serif;-inkscape-font-specification:'sans-serif, Normal';text-align:start;letter-spacing:0px;word-spacing:0px;writing-mode:lr-tb;text-anchor:start;fill:#000000;fill-opacity:1;stroke:none;stroke-width:1px;stroke-linecap:butt;stroke-linejoin:miter;stroke-opacity:1"
         xml:space="preserve"><tspan
           y="647.82599"
           x="734.69067"
           id="tspan9271-8"
           sodipodi:role="line">Router</tspan></text>
      <text
         sodipodi:linespacing="125%"
         id="text9269-4-7"
         y="825.83502"
         x="990.0957"
         style="font-style:normal;font-variant:normal;font-weight:normal;font-stretch:normal;font-size:22.5px;line-height:125%;font-family:sans-serif;-inkscape-font-specification:'sans-serif, Normal';text-align:center;letter-spacing:0px;word-spacing:0px;writing-mode:lr-tb;text-anchor:middle;fill:#000000;fill-opacity:1;stroke:none;stroke-width:1px;stroke-linecap:butt;stroke-linejoin:miter;stroke-opacity:1"
         xml:space="preserve"><tspan
           y="825.83502"
           x="994.05078"
           id="tspan9271-1-3"
           sodipodi:role="line">Temperature </tspan><tspan
           id="tspan9377-3"
           y="853.96002"
           x="990.0957"
           sodipodi:role="line">Sensor</tspan></text>
      <text
         sodipodi:linespacing="125%"
         id="text9269-9-5"
         y="649.83502"
         x="1200.0957"
         style="font-style:normal;font-variant:normal;font-weight:normal;font-stretch:normal;font-size:22.5px;line-height:125%;font-family:sans-serif;-inkscape-font-specification:'sans-serif, Normal';text-align:center;letter-spacing:0px;word-spacing:0px;writing-mode:lr-tb;text-anchor:middle;fill:#000000;fill-opacity:1;stroke:none;stroke-width:1px;stroke-linecap:butt;stroke-linejoin:miter;stroke-opacity:1"
         xml:space="preserve"><tspan
           y="649.83502"
           x="1200.0957"
           id="tspan9271-7-4"
           sodipodi:role="line">Temperature</tspan><tspan
           id="tspan9375-1"
           y="677.96002"
           x="1200.0957"
           sodipodi:role="line"> Sensor</tspan></text>
      <text
         sodipodi:linespacing="125%"
         id="text9269-3-3"
         y="505.83502"
         x="984.0957"
         style="font-style:normal;font-variant:normal;font-weight:normal;font-stretch:normal;font-size:22.5px;line-height:125%;font-family:sans-serif;-inkscape-font-specification:'sans-serif, Normal';text-align:center;letter-spacing:0px;word-spacing:0px;writing-mode:lr-tb;text-anchor:middle;fill:#000000;fill-opacity:1;stroke:none;stroke-width:1px;stroke-linecap:butt;stroke-linejoin:miter;stroke-opacity:1"
         xml:space="preserve"><tspan
           y="505.83502"
           x="988.05078"
           id="tspan9271-2-5"
           sodipodi:role="line">Heating </tspan><tspan
           id="tspan9373-1"
           y="533.96002"
           x="984.0957"
           sodipodi:role="line">Actuator</tspan></text>
      <path
         inkscape:connector-curvature="0"
         id="path9668-3"
         d="m 839.92143,618.30059 c 115,115 115,115 115,115"
         style="fill:none;fill-rule:evenodd;stroke:#000000;stroke-width:1;stroke-linecap:butt;stroke-linejoin:miter;stroke-miterlimit:4;stroke-dasharray:1, 6;stroke-dashoffset:0;stroke-opacity:1;marker-start:url(#Arrow1Lstart-9);marker-end:url(#marker9904-9)" />
      <path
         inkscape:connector-curvature="0"
         id="path9674-1"
         d="M 1120.3541,536.47845 C 1031.1806,496.4026 1031.1806,496.4026 1031.1806,496.4026"
         style="fill:none;fill-rule:evenodd;stroke:#000000;stroke-width:0.72173023px;stroke-linecap:butt;stroke-linejoin:miter;stroke-opacity:1;marker-end:url(#Arrow1Lend-7)" />
      <text
         sodipodi:linespacing="125%"
         id="text9269-9-8-9-8"
         y="613.005"
         x="985.99286"
         style="font-style:normal;font-variant:normal;font-weight:normal;font-stretch:normal;font-size:22.5px;line-height:125%;font-family:sans-serif;-inkscape-font-specification:'sans-serif, Normal';text-align:center;letter-spacing:0px;word-spacing:0px;writing-mode:lr-tb;text-anchor:middle;fill:#000000;fill-opacity:1;stroke:none;stroke-width:1px;stroke-linecap:butt;stroke-linejoin:miter;stroke-opacity:1"
         xml:space="preserve"><tspan
           id="tspan9504-5-2"
           y="613.005"
           x="985.99286"
           sodipodi:role="line">CoAP</tspan><tspan
           id="tspan10004-1"
           y="641.13"
           x="985.99286"
           sodipodi:role="line">Instructions</tspan></text>
      <text
         sodipodi:linespacing="125%"
         id="text9269-9-8-5-7"
         y="470.67767"
         x="1133.9928"
         style="font-style:normal;font-variant:normal;font-weight:normal;font-stretch:normal;font-size:22.5px;line-height:125%;font-family:sans-serif;-inkscape-font-specification:'sans-serif, Normal';text-align:center;letter-spacing:0px;word-spacing:0px;writing-mode:lr-tb;text-anchor:middle;fill:#000000;fill-opacity:1;stroke:none;stroke-width:1px;stroke-linecap:butt;stroke-linejoin:miter;stroke-opacity:1"
         xml:space="preserve"><tspan
           id="tspan9504-9-5"
           y="470.67767"
           x="1133.9928"
           sodipodi:role="line">Output</tspan></text>
      <text
         sodipodi:linespacing="125%"
         id="text9269-9-8-0-4"
         y="594.67767"
         x="1147.9928"
         style="font-style:normal;font-variant:normal;font-weight:normal;font-stretch:normal;font-size:22.5px;line-height:125%;font-family:sans-serif;-inkscape-font-specification:'sans-serif, Normal';text-align:center;letter-spacing:0px;word-spacing:0px;writing-mode:lr-tb;text-anchor:middle;fill:#000000;fill-opacity:1;stroke:none;stroke-width:1px;stroke-linecap:butt;stroke-linejoin:miter;stroke-opacity:1"
         xml:space="preserve"><tspan
           id="tspan9504-2-0"
           y="594.67767"
           x="1147.9928"
           sodipodi:role="line">Input</tspan></text>
      <text
         sodipodi:linespacing="125%"
         id="text4319"
         y="686.37115"
         x="876.22736"
         style="font-style:normal;font-weight:normal;font-size:40px;line-height:125%;font-family:sans-serif;letter-spacing:0px;word-spacing:0px;fill:#000000;fill-opacity:1;stroke:none;stroke-width:1px;stroke-linecap:butt;stroke-linejoin:miter;stroke-opacity:1"
         xml:space="preserve"><tspan
           y="686.37115"
           x="876.22736"
           id="tspan4321"
           sodipodi:role="line">X</tspan></text>
      <path
         inkscape:connector-curvature="0"
         id="path9668-4"
         d="m 834.92187,591.09261 c 295.99913,62.416 295.99913,62.416 295.99913,62.416"
         style="fill:none;fill-rule:evenodd;stroke:#000000;stroke-width:1.1819396;stroke-linecap:butt;stroke-linejoin:miter;stroke-miterlimit:4;stroke-dasharray:1.18193959, 7.09163757;stroke-dashoffset:0;stroke-opacity:1;marker-start:url(#Arrow1Lstart-3-5);marker-end:url(#marker9904-3-7)" />
      <path
         sodipodi:nodetypes="cc"
         inkscape:connector-curvature="0"
         id="path4247"
         d="m 1145.0534,631.46082 c -119.5096,-29.98853 -25.9591,-73.82357 -25.9591,-73.82357"
         style="fill:none;fill-rule:evenodd;stroke:#000000;stroke-width:1.15468693px;stroke-linecap:butt;stroke-linejoin:miter;stroke-opacity:1;marker-end:url(#marker4255-6)" />
      <text
         sodipodi:linespacing="125%"
         id="text9269-9-8-1"
         y="552.67767"
         x="1153.9928"
         style="font-style:normal;font-variant:normal;font-weight:normal;font-stretch:normal;font-size:22.5px;line-height:125%;font-family:sans-serif;-inkscape-font-specification:'sans-serif, Normal';text-align:center;letter-spacing:0px;word-spacing:0px;writing-mode:lr-tb;text-anchor:middle;fill:#000000;fill-opacity:1;stroke:none;stroke-width:1px;stroke-linecap:butt;stroke-linejoin:miter;stroke-opacity:1"
         xml:space="preserve"><tspan
           id="tspan9504-1"
           y="552.67767"
           x="1153.9928"
           sodipodi:role="line">Task</tspan></text>
    </g>
    <text
       xml:space="preserve"
       style="font-style:normal;font-weight:normal;font-size:40px;line-height:125%;font-family:sans-serif;letter-spacing:0px;word-spacing:0px;fill:#000000;fill-opacity:1;stroke:none;stroke-width:1px;stroke-linecap:butt;stroke-linejoin:miter;stroke-opacity:1"
       x="240.39723"
       y="906.83679"
       id="text5052"
       sodipodi:linespacing="125%"><tspan
         sodipodi:role="line"
         id="tspan5054"
         x="240.39723"
         y="906.83679"
         style="font-size:25px">(a) Input Node Failure</tspan></text>
    <text
       xml:space="preserve"
       style="font-style:normal;font-weight:normal;font-size:40px;line-height:125%;font-family:sans-serif;letter-spacing:0px;word-spacing:0px;fill:#000000;fill-opacity:1;stroke:none;stroke-width:1px;stroke-linecap:butt;stroke-linejoin:miter;stroke-opacity:1"
       x="862.19043"
       y="907.81921"
       id="text5052-8"
       sodipodi:linespacing="125%"><tspan
         sodipodi:role="line"
         id="tspan5054-4"
         x="862.19043"
         y="907.81921"
         style="font-size:25px">(b) Host Node Failure</tspan></text>
  </g>
</svg>
