\relax 
\bibstyle{biblatex}
\bibdata{camera-blx,references}
\citation{biblatex-control}
\citation{tres}
\citation{tres}
\citation{context}
\citation{context-toolkit}
\@writefile{toc}{\boolfalse {citerequest}\boolfalse {citetracker}\boolfalse {pagetracker}\boolfalse {backtracker}\relax }
\@writefile{lof}{\boolfalse {citerequest}\boolfalse {citetracker}\boolfalse {pagetracker}\boolfalse {backtracker}\relax }
\@writefile{lot}{\boolfalse {citerequest}\boolfalse {citetracker}\boolfalse {pagetracker}\boolfalse {backtracker}\relax }
\@writefile{toc}{\defcounter {refsection}{0}\relax }\@writefile{toc}{\contentsline {section}{\numberline {I}Introduction}{1}}
\@writefile{toc}{\defcounter {refsection}{0}\relax }\@writefile{toc}{\contentsline {section}{\numberline {II}Context-Awareness in IoT}{1}}
\@writefile{lof}{\defcounter {refsection}{0}\relax }\@writefile{lof}{\contentsline {figure}{\numberline {1}{\ignorespaces Context-awareness in body area network.\relax }}{1}}
\providecommand*\caption@xref[2]{\@setref\relax\@undefined{#1}}
\newlabel{Fig: example}{{1}{1}}
\citation{fortino2013enabling}
\citation{regiment}
\citation{ATaG}
\citation{regiment}
\citation{tres}
\citation{coap}
\citation{tres}
\@writefile{toc}{\defcounter {refsection}{0}\relax }\@writefile{toc}{\contentsline {section}{\numberline {III}Related Work}{2}}
\@writefile{toc}{\defcounter {refsection}{0}\relax }\@writefile{toc}{\contentsline {section}{\numberline {IV}Context-Aware Frameworks (CAF)}{2}}
\@writefile{lof}{\defcounter {refsection}{0}\relax }\@writefile{lof}{\contentsline {figure}{\numberline {2}{\ignorespaces Main features for Context-Aware Framework for IoT.\relax }}{2}}
\newlabel{Fig: CAF}{{2}{2}}
\@writefile{toc}{\defcounter {refsection}{0}\relax }\@writefile{toc}{\contentsline {section}{\numberline {V}Proposal and Implementation of CAF}{2}}
\citation{sauce}
\citation{sauce}
\citation{txthings}
\@writefile{toc}{\defcounter {refsection}{0}\relax }\@writefile{toc}{\contentsline {subsection}{\numberline {\unhbox \voidb@x \hbox {V-A}}Extending T-Res}{3}}
\@writefile{lof}{\defcounter {refsection}{0}\relax }\@writefile{lof}{\contentsline {figure}{\numberline {3}{\ignorespaces T-Res task structure for the example.\relax }}{3}}
\newlabel{Fig: TRes-task-combine}{{3}{3}}
\@writefile{lof}{\defcounter {refsection}{0}\relax }\@writefile{lof}{\contentsline {figure}{\numberline {4}{\ignorespaces mT-Res: Extension to T-Res.\relax }}{3}}
\newlabel{Fig: mT-Res}{{4}{3}}
\@writefile{toc}{\defcounter {refsection}{0}\relax }\@writefile{toc}{\contentsline {section}{\numberline {VI}Working Demonstration}{3}}
\citation{copper}
\@writefile{lof}{\defcounter {refsection}{0}\relax }\@writefile{lof}{\contentsline {figure}{\numberline {5}{\ignorespaces Four motes with a simple T-Res application\relax }}{4}}
\newlabel{Fig: example}{{5}{4}}
\@writefile{toc}{\defcounter {refsection}{0}\relax }\@writefile{toc}{\contentsline {subsection}{\numberline {\unhbox \voidb@x \hbox {VI-A}}Change in Context}{4}}
\@writefile{toc}{\defcounter {refsection}{0}\relax }\@writefile{toc}{\contentsline {section}{\numberline {VII}Conclusion}{4}}
