This is 8-bit Big BibTeX version 0.99d
Implementation:  Microsoft(R) C/C++ for Win32
Release version: 3.71 (18 mar 2013)

The 8-bit codepage and sorting file: 88591lat.csf
The top-level auxiliary file: camera.aux
The style file: biblatex.bst
Reallocated glb_str_ptr (elt_size=4) to 10 items from 0.
Reallocated global_strs (elt_size=20001) to 10 items from 0.
Reallocated glb_str_end (elt_size=4) to 10 items from 0.
Reallocated singl_function (elt_size=4) to 100 items from 50.
Reallocated singl_function (elt_size=4) to 100 items from 50.
Reallocated singl_function (elt_size=4) to 100 items from 50.
Reallocated singl_function (elt_size=4) to 100 items from 50.
Reallocated singl_function (elt_size=4) to 100 items from 50.
Reallocated wiz_functions (elt_size=4) to 6000 items from 3000.
Reallocated singl_function (elt_size=4) to 100 items from 50.
Reallocated singl_function (elt_size=4) to 100 items from 50.
Reallocated singl_function (elt_size=4) to 100 items from 50.
Reallocated singl_function (elt_size=4) to 100 items from 50.
Reallocated singl_function (elt_size=4) to 100 items from 50.
Database file #1: camera-blx.bib
Database file #2: references.bib
Biblatex version: 3.0
Reallocated singl_function (elt_size=4) to 100 items from 50.
Reallocated wiz_functions (elt_size=4) to 9000 items from 6000.

Here's how much of BibTeX's memory you used:
 Cites:                11 out of 750
 Fields:             1401 out of 5000
 Hash table:        34701 out of 35307
 Strings:            1176 out of 35307
 Free string pool:   9877 out of 65000
 Wizard functions:   6047 out of 9000
